…
hedgehog_sf <- st_as_sf(
  hedgehog$data,
  coords = c("decimalLongitude", "decimalLatitude"),
  crs = 4326
)

hedgehog_sf

## Simple feature collection with 500 features and 127 fields
## Geometry type: POINT
## Dimension:     XY
## Bounding box:  xmin: -9.434005 ymin: -46.10864 xmax: 176.8806 ymax: 62.45595
## Geodetic CRS:  WGS 84
## # A tibble: 500 × 128
##    key     scientificName issues datasetKey publishingOrgKey installationKey hostingOrganizationKey
##  * <chr>   <chr>          <chr>  <chr>      <chr>            <chr>           <chr>                 
##  1 593796… Erinaceus eur… cdc,c… 6ac3f774-… bb646dff-a905-4… 36cae45c-1983-… bb646dff-a905-4403-a4…
##  2 593796… Erinaceus eur… cdc,c… 6ac3f774-… bb646dff-a905-4… 36cae45c-1983-… bb646dff-a905-4403-a4…
##  3 593797… Erinaceus eur… cdc,c… 6ac3f774-… bb646dff-a905-4… 36cae45c-1983-… bb646dff-a905-4403-a4…
##  4 593797… Erinaceus eur… cdc,c… 6ac3f774-… bb646dff-a905-4… 36cae45c-1983-… bb646dff-a905-4403-a4…
##  5 593802… Erinaceus eur… cdc,c… 50c9509d-… 28eb1a3f-1c15-4… 997448a8-f762-… 28eb1a3f-1c15-4a95-93…
##  6 593803… Erinaceus eur… cdc,c… 50c9509d-… 28eb1a3f-1c15-4… 997448a8-f762-… 28eb1a3f-1c15-4a95-93…
##  7 593810… Erinaceus eur… cdc,c… 50c9509d-… 28eb1a3f-1c15-4… 997448a8-f762-… 28eb1a3f-1c15-4a95-93…
##  8 593818… Erinaceus eur… cdc    50c9509d-… 28eb1a3f-1c15-4… 997448a8-f762-… 28eb1a3f-1c15-4a95-93…
##  9 593818… Erinaceus eur… cdc,c… 50c9509d-… 28eb1a3f-1c15-4… 997448a8-f762-… 28eb1a3f-1c15-4a95-93…
## 10 593819… Erinaceus eur… cdc,c… 50c9509d-… 28eb1a3f-1c15-4… 997448a8-f762-… 28eb1a3f-1c15-4a95-93…
## # ℹ 490 more rows
## # ℹ 121 more variables: publishingCountry <chr>, protocol <chr>, lastCrawled <chr>,
## #   lastParsed <chr>, crawlId <int>, basisOfRecord <chr>, occurrenceStatus <chr>, taxonKey <int>,
## #   kingdomKey <int>, phylumKey <int>, classKey <int>, orderKey <int>, familyKey <int>,
## #   genusKey <int>, speciesKey <int>, acceptedTaxonKey <int>, acceptedScientificName <chr>,
## #   kingdom <chr>, phylum <chr>, order <chr>, family <chr>, genus <chr>, species <chr>,
## #   genericName <chr>, specificEpithet <chr>, taxonRank <chr>, taxonomicStatus <chr>, …
…
