Module 2: Opening and exploring spatial data |
…
howler_sf <- st_as_sf(
  howler$data,
  coords = c("decimalLongitude", "decimalLatitude"),
  crs = 4326
)

howler_sf

## Simple feature collection with 300 features and 105 fields
## Geometry type: POINT
## Dimension:     XY
## Bounding box:  xmin: -94.50629 ymin: -3.743768 xmax: -77.36822 ymax: 18.37124
## Geodetic CRS:  WGS 84
## # A tibble: 300 × 106
##    key        scientificName  issues datasetKey publishingOrgKey installationKey
##  * <chr>      <chr>           <chr>  <chr>      <chr>            <chr>          
##  1 5938036987 Alouatta palli… cdc,c… 50c9509d-… 28eb1a3f-1c15-4… 997448a8-f762-…
##  2 5938118541 Alouatta palli… cdc,c… 50c9509d-… 28eb1a3f-1c15-4… 997448a8-f762-…
##  3 5938193003 Alouatta palli… cdc,c… 50c9509d-… 28eb1a3f-1c15-4… 997448a8-f762-…
##  4 5938235647 Alouatta palli… cdc,c… 50c9509d-… 28eb1a3f-1c15-4… 997448a8-f762-…
##  5 5938269984 Alouatta palli… cdc,c… 50c9509d-… 28eb1a3f-1c15-4… 997448a8-f762-…
##  6 5938276988 Alouatta palli… cdc,c… 50c9509d-… 28eb1a3f-1c15-4… 997448a8-f762-…
##  7 5938279221 Alouatta palli… cdc,c… 50c9509d-… 28eb1a3f-1c15-4… 997448a8-f762-…
##  8 5938302462 Alouatta palli… cdc,c… 50c9509d-… 28eb1a3f-1c15-4… 997448a8-f762-…
##  9 5938375614 Alouatta palli… cdc,c… 50c9509d-… 28eb1a3f-1c15-4… 997448a8-f762-…
## 10 5938407216 Alouatta palli… cdc,c… 50c9509d-… 28eb1a3f-1c15-4… 997448a8-f762-…
## # ℹ 290 more rows
## # ℹ 100 more variables: hostingOrganizationKey <chr>, publishingCountry <chr>,
## #   protocol <chr>, lastCrawled <chr>, lastParsed <chr>, crawlId <int>,
## #   basisOfRecord <chr>, occurrenceStatus <chr>, taxonKey <int>,
## #   kingdomKey <int>, phylumKey <int>, classKey <int>, orderKey <int>,
## #   familyKey <int>, genusKey <int>, speciesKey <int>, acceptedTaxonKey <int>,
## #   acceptedScientificName <chr>, kingdom <chr>, phylum <chr>, order <chr>, …
…
