…
    ## # A tibble: 1 × 8
    ##   species island    bill_length_mm bill_depth_mm flipper_length_mm body_mass_g sex    year
    ##   <fct>   <fct>              <dbl>         <dbl>             <int>       <int> <fct> <int>
    ## 1 Adelie  Torgersen           39.1          18.7               181        3750 male   2007

…gives you row 1. Similarly,

``` r
penguins_clean[,1]
```

    ## # A tibble: 342 × 1
    ##    species
    ##    <fct>  
    ##  1 Adelie 
    ##  2 Adelie 
    ##  3 Adelie 
    ##  4 Adelie 
    ##  5 Adelie 
    ##  6 Adelie 
    ##  7 Adelie 
    ##  8 Adelie 
    ##  9 Adelie 
    ## 10 Adelie 
    ## # ℹ 332 more rows
…
    ## # A tibble: 1 × 1
    ##   species
    ##   <fct>  
    ## 1 Adelie

…gives you the cell found at row 1, column 1. You can use more
complicated arguments to extract multiple values using an array argument
`:` for concurrent data or `c()` for non-concurrent data. If that sounds
like complete gibberish:

``` r
penguins_clean[,2:5]
```

    ## # A tibble: 342 × 4
    ##    island    bill_length_mm bill_depth_mm flipper_length_mm
    ##    <fct>              <dbl>         <dbl>             <int>
    ##  1 Torgersen           39.1          18.7               181
    ##  2 Torgersen           39.5          17.4               186
    ##  3 Torgersen           40.3          18                 195
    ##  4 Torgersen           36.7          19.3               193
    ##  5 Torgersen           39.3          20.6               190
    ##  6 Torgersen           38.9          17.8               181
    ##  7 Torgersen           39.2          19.6               195
    ##  8 Torgersen           34.1          18.1               193
    ##  9 Torgersen           42            20.2               190
    ## 10 Torgersen           37.8          17.1               186
    ## # ℹ 332 more rows

``` r
penguins_clean[,c(2,5)]
```

    ## # A tibble: 342 × 2
    ##    island    flipper_length_mm
    ##    <fct>                 <int>
    ##  1 Torgersen               181
    ##  2 Torgersen               186
    ##  3 Torgersen               195
    ##  4 Torgersen               193
    ##  5 Torgersen               190
    ##  6 Torgersen               181
    ##  7 Torgersen               195
    ##  8 Torgersen               193
    ##  9 Torgersen               190
    ## 10 Torgersen               186
    ## # ℹ 332 more rows
…
